practice/up_counter.vcd
$comment Generated by nMigen $end
$date 2021-05-10 19:35:08.815222 $end
$timescale 100 ps $end
$scope module top $end
$var wire 1 0 ovf $end
$var wire 16 1 count $end
$var wire 1 2 clk $end
$var wire 1 3 rst $end
$var wire 1 4 en $end
$upscope $end
$enddefinitions $end
#0
$dumpvars
00
b0 1
02
03
04
$end
#5000
12
#10000
02
#15000
12
#20000
02
#24999
12
#29999
02
#34999
12
#40000
02
#45000
12
#50000
02
#55000
12
#60000
02
#65000
12
#70000
02
#75000
12
#80000
02
#85000
12
#90000
02
#95000
12
#100000
02
#105000
12
#110000
02
#115000
12
#120000
02
#125000
12
#130000
02
#135000
12
#140000
02
#145000
12
#150000
02
#155000
12
#160000
02
#165000
12
#170000
02
#174999
12
#179999
02
#184999
12
#189999
02
#194999
12
#199999
02
#204999
12
#209999
02
#214999
12
#219999
02
#224999
12
#229999
02
#234999
12
#239999
02
#244999
12
#249999
02
#254999
12
#259999
02
#264999
12
#269999
02
#274999
12
#279999
02
#284999
12
#289999
02
#294999
12
#299999
02
#304999
12
14
#309999
02
#314999
12
b1 1
#319999
02
#324999
12
b10 1
#329999
02
#334999
12
b11 1
#339999
02
#344999
12
b100 1
#349999
02
#354999
12
b101 1
#359999
02
#364999
12
b110 1
#369999
02
#374999
12
b111 1
#379999
02
#384999
12
b1000 1
#389999
02
#394999
12
b1001 1
#399999
02
#404999
12
b1010 1
#409999
02
#414999
12
b1011 1
#419999
02
#424999
12
b1100 1
#429999
02
#434999
12
b1101 1
#439999
02
#444999
12
b1110 1
#449999
02
#454999
12
b1111 1
#459999
02
#464999
12
b10000 1
#469999
02
#474999
12
b10001 1
#479999
02
#484999
12
b10010 1
#489999
02
#494999
12
b10011 1
#499999
02
#504999
12
b10100 1
#509999
02
#514999
12
b10101 1
#519999
02
#524999
12
b10110 1
#529999
02
#534999
12
b10111 1
#539999
02
#544999
12
b11000 1
#549999
02
#554999
12
b11001 1
10
#559999
02
#564999
12
b0 1
00
#569999
02
#574999
12
b1 1
